Demystifying R: A Guided Tour
…
## Data Analysis

---

### Import Data

```r
nhanes <- read_csv("data/nhanes.csv")
```

--

```
## # A tibble: 10,000 x 22
##       id survey_yr gender   age age_decade race1 education marital_status
##    <dbl> <chr>     <chr>  <dbl> <chr>      <chr> <chr>     <chr>         
##  1 51624 2009_10   male      34 30-39      White High Sch… Married       
##  2 51624 2009_10   male      34 30-39      White High Sch… Married       
##  3 51624 2009_10   male      34 30-39      White High Sch… Married       
##  4 51625 2009_10   male       4 0-9        Other <NA>      <NA>          
##  5 51630 2009_10   female    49 40-49      White Some Col… LivePartner   
##  6 51638 2009_10   male       9 0-9        White <NA>      <NA>          
##  7 51646 2009_10   male       8 0-9        White <NA>      <NA>          
##  8 51647 2009_10   female    45 40-49      White College … Married       
##  9 51647 2009_10   female    45 40-49      White College … Married       
## 10 51647 2009_10   female    45 40-49      White College … Married       
## # … with 9,990 more rows, and 14 more variables: hh_income <chr>,
## #   home_own <chr>, work <chr>, weight <dbl>, height <dbl>, bmi <dbl>,
## #   health_gen <chr>, days_phys_hlth_bad <dbl>, days_ment_hlth_bad <dbl>,
## #   sleep_hrs_night <dbl>, phys_active <chr>, phys_active_days <dbl>,
## #   tv_hrs_day <lgl>, smoke_now <chr>
```
…
